INDEX VERSION 1.130+/home/wblk/eclipse-workspace/.metadata/.plugins/org.eclipse.jdt.core
2778622337.index
2038087475.index
3264442102.index
3823823859.index
2300646004.index
3199821246.index
3872104537.index
312326932.index
2443230409.index
1536193090.index
2412570118.index
2860499575.index
3329504810.index
728934227.index
2017775720.index
3055931853.index
3467515229.index
767930737.index
